{
  "label": "Icon",
  "options": [
    {
      "label": "📄 Document",
      "value": "file-alt"
    },
    {
      "label": "📽 Slide",
      "value": "layout-group"
    },
    {
      "label": "▶️ Video",
      "value": "play"
    },
    {
      "label": "👥 Workshop",
      "value": "users"
    },
    {
      "label": "💻 Coding exercise",
      "value": "laptop-code"
    },
    {
      "label": "✏️ Exam project",
      "value": "pencil-alt"
    },
    {
      "label": "🚨 Important",
      "value": "exclamation-circle"
    },
    {
      "label": "🏆 Optional project",
      "value": "thropy"
    },
    {
      "label": "🎥 Video playlist",
      "value": "list-ul"
    },
    {
      "label": "📈 Infographic",
      "value": "image"
    },
    {
      "label": "🕸 Diagram",
      "value": "project-diagram"
    },
    {
      "label": "🧑‍🏫 Recorded lecture",
      "value": "chalkboard-teacher"
    },
    {
      "label": "📂 Folder",
      "value": "folder"
    },
    {
      "label": "🌎 External platform",
      "value": "globe"
    }
  ]
}
